// Jest Snapshot v1, https://goo.gl/fbAQLP

exports[`Corpus Upload component renders total size 1`] = `
<div
  class="gl-h-11 gl-bg-gray-10 gl-display-flex gl-justify-content-space-between gl-align-items-center"
>
  <div
    class="gl-ml-5"
  >
    Total Size: 
    <span
      class="gl-font-weight-bold"
      data-testid="total-size"
    >
      400MB
    </span>
  </div>
   
</div>
`;
